<?xml version="1.0" encoding="UTF-8"?>
<session version="1.0">
<refactoring comment="Encapsulate field &apos;clientes_compras.Cliente.listaCompra&apos; in &apos;clientes_compras.Cliente&apos;&#x0D;&#x0A;- Original project: &apos;Refuerzo&apos;&#x0D;&#x0A;- Original element: &apos;clientes_compras.Cliente.listaCompra&apos;&#x0D;&#x0A;- Getter method name: &apos;getListaCompra&apos;&#x0D;&#x0A;- Setter method name: &apos;setListaCompra&apos;&#x0D;&#x0A;- Field visibility: &apos;public&apos;&#x0D;&#x0A;- Use getter and setter methods in declaring type" comments="false" declaring="true" description="Encapsulate field &apos;listaCompra&apos;" flags="589830" getter="getListaCompra" id="org.eclipse.jdt.ui.self.encapsulate" input="/src&lt;clientes_compras{Cliente.java[Cliente^listaCompra" insertion="8" setter="setListaCompra" stamp="1667395741231" version="1.0" visibility="1"/>
</session>