-- Merging decision tree log ---
manifest
ADDED from C:\Users\admin\work\DAM\ANDROID\Kotlin\10.Clases\app\src\main\AndroidManifest.xml:2:1-25:12
INJECTED from C:\Users\admin\work\DAM\ANDROID\Kotlin\10.Clases\app\src\main\AndroidManifest.xml:2:1-25:12
INJECTED from C:\Users\admin\work\DAM\ANDROID\Kotlin\10.Clases\app\src\main\AndroidManifest.xml:2:1-25:12
INJECTED from C:\Users\admin\work\DAM\ANDROID\Kotlin\10.Clases\app\src\main\AndroidManifest.xml:2:1-25:12
MERGED from [com.google.android.material:material:1.7.0] C:\Users\admin\.gradle\caches\transforms-3\54de430e29905f1b74ec8ce675293a4b\transformed\material-1.7.0\AndroidManifest.xml:17:1-26:12
MERGED from [androidx.constraintlayout:constraintlayout:2.1.4] C:\Users\admin\.gradle\caches\transforms-3\a26dc482b536573e278955427a3ea6c8\transformed\constraintlayout-2.1.4\AndroidManifest.xml:2:1-11:12
MERGED from [androidx.appcompat:appcompat-resources:1.6.0] C:\Users\admin\.gradle\caches\transforms-3\8226197697a8d2e8d421fa275be29f24\transformed\appcompat-resources-1.6.0\AndroidManifest.xml:17:1-22:12
MERGED from [androidx.appcompat:appcompat:1.6.0] C:\Users\admin\.gradle\caches\transforms-3\1a74363f4d2fd99bd10bf980a8bbdc17\transformed\appcompat-1.6.0\AndroidManifest.xml:17:1-22:12
MERGED from [androidx.viewpager2:viewpager2:1.0.0] C:\Users\admin\.gradle\caches\transforms-3\b66e37cd018c06e8913391ed14bbe357\transformed\viewpager2-1.0.0\AndroidManifest.xml:17:1-24:12
MERGED from [androidx.fragment:fragment:1.3.6] C:\Users\admin\.gradle\caches\transforms-3\e628b453cd8bee189f7929fa053ca6e2\transformed\fragment-1.3.6\AndroidManifest.xml:17:1-24:12
MERGED from [androidx.activity:activity:1.6.0] C:\Users\admin\.gradle\caches\transforms-3\b4d0ffd577e5f1174a428d1849fca608\transformed\activity-1.6.0\AndroidManifest.xml:17:1-22:12
MERGED from [androidx.dynamicanimation:dynamicanimation:1.0.0] C:\Users\admin\.gradle\caches\transforms-3\b72abda2dafe11092efd2c7c2df17f0e\transformed\dynamicanimation-1.0.0\AndroidManifest.xml:17:1-22:12
MERGED from [androidx.legacy:legacy-support-core-utils:1.0.0] C:\Users\admin\.gradle\caches\transforms-3\c2697a104d53b58384dcb2658625ee7e\transformed\legacy-support-core-utils-1.0.0\AndroidManifest.xml:17:1-22:12
MERGED from [androidx.loader:loader:1.0.0] C:\Users\admin\.gradle\caches\transforms-3\597806e147b2b20e724620405b72a9f2\transformed\loader-1.0.0\AndroidManifest.xml:17:1-22:12
MERGED from [androidx.lifecycle:lifecycle-viewmodel:2.5.1] C:\Users\admin\.gradle\caches\transforms-3\b40e0202e8b44ebef854b3b3796ef4a5\transformed\lifecycle-viewmodel-2.5.1\AndroidManifest.xml:17:1-24:12
MERGED from [androidx.lifecycle:lifecycle-viewmodel-savedstate:2.5.1] C:\Users\admin\.gradle\caches\transforms-3\859df3079c03d9dcd785caeb22efa886\transformed\lifecycle-viewmodel-savedstate-2.5.1\AndroidManifest.xml:17:1-24:12
MERGED from [androidx.emoji2:emoji2-views-helper:1.2.0] C:\Users\admin\.gradle\caches\transforms-3\94857988354892de7618866143ec8717\transformed\emoji2-views-helper-1.2.0\AndroidManifest.xml:2:1-7:12
MERGED from [androidx.emoji2:emoji2:1.2.0] C:\Users\admin\.gradle\caches\transforms-3\7ff1b1d9c636b3fcd5669f68254f90d8\transformed\emoji2-1.2.0\AndroidManifest.xml:17:1-35:12
MERGED from [androidx.drawerlayout:drawerlayout:1.1.1] C:\Users\admin\.gradle\caches\transforms-3\374c8323f7aed8dcc8d00c8253274b3e\transformed\drawerlayout-1.1.1\AndroidManifest.xml:17:1-24:12
MERGED from [androidx.coordinatorlayout:coordinatorlayout:1.1.0] C:\Users\admin\.gradle\caches\transforms-3\76823a304916f730137ce0f083d0282b\transformed\coordinatorlayout-1.1.0\AndroidManifest.xml:17:1-24:12
MERGED from [androidx.transition:transition:1.2.0] C:\Users\admin\.gradle\caches\transforms-3\6406354f75501461066cb94bdb0a80ae\transformed\transition-1.2.0\AndroidManifest.xml:17:1-24:12
MERGED from [androidx.vectordrawable:vectordrawable-animated:1.1.0] C:\Users\admin\.gradle\caches\transforms-3\490c9e5fc3b64662bdfd87cc845ef097\transformed\vectordrawable-animated-1.1.0\AndroidManifest.xml:17:1-24:12
MERGED from [androidx.vectordrawable:vectordrawable:1.1.0] C:\Users\admin\.gradle\caches\transforms-3\87d8b5457c07ce6b83872c79f6a2853b\transformed\vectordrawable-1.1.0\AndroidManifest.xml:17:1-24:12
MERGED from [androidx.viewpager:viewpager:1.0.0] C:\Users\admin\.gradle\caches\transforms-3\5e3069c042f5d7456ac6ecbb90a43efa\transformed\viewpager-1.0.0\AndroidManifest.xml:17:1-22:12
MERGED from [androidx.recyclerview:recyclerview:1.1.0] C:\Users\admin\.gradle\caches\transforms-3\936b4b39b86c4a3c90a5bc5674ee6904\transformed\recyclerview-1.1.0\AndroidManifest.xml:17:1-24:12
MERGED from [androidx.customview:customview:1.1.0] C:\Users\admin\.gradle\caches\transforms-3\7173a79ce234f9ef7d2607cdf2c985af\transformed\customview-1.1.0\AndroidManifest.xml:17:1-24:12
MERGED from [androidx.core:core:1.10.0-alpha01] C:\Users\admin\.gradle\caches\transforms-3\25c761b5d07a1174af34f5a9d24f085d\transformed\core-1.10.0-alpha01\AndroidManifest.xml:17:1-30:12
MERGED from [androidx.core:core-ktx:1.10.0-alpha01] C:\Users\admin\.gradle\caches\transforms-3\0a70b12574804b5d8278d4a7b5dcaa20\transformed\core-ktx-1.10.0-alpha01\AndroidManifest.xml:2:1-7:12
MERGED from [androidx.savedstate:savedstate:1.2.0] C:\Users\admin\.gradle\caches\transforms-3\0523bee9d1ff70f7d9b0e6aa34e80d06\transformed\savedstate-1.2.0\AndroidManifest.xml:17:1-24:12
MERGED from [androidx.annotation:annotation-experimental:1.3.0] C:\Users\admin\.gradle\caches\transforms-3\05fb4f56f386ab35064aac5e4092e813\transformed\annotation-experimental-1.3.0\AndroidManifest.xml:17:1-22:12
MERGED from [androidx.cursoradapter:cursoradapter:1.0.0] C:\Users\admin\.gradle\caches\transforms-3\0f35c852ffdcc6868f4ae90d3222a8ab\transformed\cursoradapter-1.0.0\AndroidManifest.xml:17:1-22:12
MERGED from [androidx.lifecycle:lifecycle-process:2.4.1] C:\Users\admin\.gradle\caches\transforms-3\d2ae72730d0d902b6b4e801bc94ab130\transformed\lifecycle-process-2.4.1\AndroidManifest.xml:17:1-37:12
MERGED from [androidx.lifecycle:lifecycle-runtime:2.5.1] C:\Users\admin\.gradle\caches\transforms-3\168c47ea75a176f4baadb15e1c3f0a88\transformed\lifecycle-runtime-2.5.1\AndroidManifest.xml:17:1-24:12
MERGED from [androidx.cardview:cardview:1.0.0] C:\Users\admin\.gradle\caches\transforms-3\f791ba8e78ad543d75e7fb7adefc2fc9\transformed\cardview-1.0.0\AndroidManifest.xml:17:1-22:12
MERGED from [androidx.interpolator:interpolator:1.0.0] C:\Users\admin\.gradle\caches\transforms-3\1ec56feae499855d711c9beeccfecdab\transformed\interpolator-1.0.0\AndroidManifest.xml:17:1-22:12
MERGED from [androidx.versionedparcelable:versionedparcelable:1.1.1] C:\Users\admin\.gradle\caches\transforms-3\60aef2cb00c30e9cb899eb9a1a6fa759\transformed\versionedparcelable-1.1.1\AndroidManifest.xml:17:1-27:12
MERGED from [androidx.startup:startup-runtime:1.1.1] C:\Users\admin\.gradle\caches\transforms-3\a147c954b7c5f138add8df3c68b29d97\transformed\startup-runtime-1.1.1\AndroidManifest.xml:17:1-33:12
MERGED from [androidx.tracing:tracing:1.0.0] C:\Users\admin\.gradle\caches\transforms-3\d0c4823b265309f28d1e1f1fc8aa7a9c\transformed\tracing-1.0.0\AndroidManifest.xml:17:1-24:12
MERGED from [androidx.lifecycle:lifecycle-livedata:2.0.0] C:\Users\admin\.gradle\caches\transforms-3\b0713a0b7e231220d69252efb434a94e\transformed\lifecycle-livedata-2.0.0\AndroidManifest.xml:17:1-22:12
MERGED from [androidx.lifecycle:lifecycle-livedata-core:2.5.1] C:\Users\admin\.gradle\caches\transforms-3\cfa4c37f2c3cf03c03ecccd9ec4d6b2c\transformed\lifecycle-livedata-core-2.5.1\AndroidManifest.xml:17:1-24:12
MERGED from [androidx.arch.core:core-runtime:2.1.0] C:\Users\admin\.gradle\caches\transforms-3\e97b27503eec22039d828cf61ee5d756\transformed\core-runtime-2.1.0\AndroidManifest.xml:17:1-24:12
MERGED from [androidx.documentfile:documentfile:1.0.0] C:\Users\admin\.gradle\caches\transforms-3\122b0d0f50f32fc5d5b8db91bd28489e\transformed\documentfile-1.0.0\AndroidManifest.xml:17:1-22:12
MERGED from [androidx.localbroadcastmanager:localbroadcastmanager:1.0.0] C:\Users\admin\.gradle\caches\transforms-3\a8b508abd1610990b0e8a9f0458a88c7\transformed\localbroadcastmanager-1.0.0\AndroidManifest.xml:17:1-22:12
MERGED from [androidx.print:print:1.0.0] C:\Users\admin\.gradle\caches\transforms-3\7f618bd0f59978824789fa038c270023\transformed\print-1.0.0\AndroidManifest.xml:17:1-22:12
INJECTED from C:\Users\admin\work\DAM\ANDROID\Kotlin\10.Clases\app\src\main\AndroidManifest.xml:2:1-25:12
INJECTED from C:\Users\admin\work\DAM\ANDROID\Kotlin\10.Clases\app\src\main\AndroidManifest.xml:2:1-25:12
INJECTED from C:\Users\admin\work\DAM\ANDROID\Kotlin\10.Clases\app\src\main\AndroidManifest.xml:2:1-25:12
	package
		INJECTED from C:\Users\admin\work\DAM\ANDROID\Kotlin\10.Clases\app\src\main\AndroidManifest.xml
		ADDED from C:\Users\admin\work\DAM\ANDROID\Kotlin\10.Clases\app\src\main\AndroidManifest.xml:2:1-25:12
		INJECTED from C:\Users\admin\work\DAM\ANDROID\Kotlin\10.Clases\app\src\main\AndroidManifest.xml
	android:versionName
		INJECTED from C:\Users\admin\work\DAM\ANDROID\Kotlin\10.Clases\app\src\main\AndroidManifest.xml
		ADDED from C:\Users\admin\work\DAM\ANDROID\Kotlin\10.Clases\app\src\main\AndroidManifest.xml:2:1-25:12
		INJECTED from C:\Users\admin\work\DAM\ANDROID\Kotlin\10.Clases\app\src\main\AndroidManifest.xml
	xmlns:tools
		ADDED from C:\Users\admin\work\DAM\ANDROID\Kotlin\10.Clases\app\src\main\AndroidManifest.xml:3:5-51
	android:versionCode
		INJECTED from C:\Users\admin\work\DAM\ANDROID\Kotlin\10.Clases\app\src\main\AndroidManifest.xml
		ADDED from C:\Users\admin\work\DAM\ANDROID\Kotlin\10.Clases\app\src\main\AndroidManifest.xml:2:1-25:12
		INJECTED from C:\Users\admin\work\DAM\ANDROID\Kotlin\10.Clases\app\src\main\AndroidManifest.xml
	xmlns:android
		ADDED from C:\Users\admin\work\DAM\ANDROID\Kotlin\10.Clases\app\src\main\AndroidManifest.xml:2:11-69
application
ADDED from C:\Users\admin\work\DAM\ANDROID\Kotlin\10.Clases\app\src\main\AndroidManifest.xml:5:5-23:19
MERGED from [com.google.android.material:material:1.7.0] C:\Users\admin\.gradle\caches\transforms-3\54de430e29905f1b74ec8ce675293a4b\transformed\material-1.7.0\AndroidManifest.xml:24:5-20
MERGED from [com.google.android.material:material:1.7.0] C:\Users\admin\.gradle\caches\transforms-3\54de430e29905f1b74ec8ce675293a4b\transformed\material-1.7.0\AndroidManifest.xml:24:5-20
MERGED from [androidx.constraintlayout:constraintlayout:2.1.4] C:\Users\admin\.gradle\caches\transforms-3\a26dc482b536573e278955427a3ea6c8\transformed\constraintlayout-2.1.4\AndroidManifest.xml:9:5-20
MERGED from [androidx.constraintlayout:constraintlayout:2.1.4] C:\Users\admin\.gradle\caches\transforms-3\a26dc482b536573e278955427a3ea6c8\transformed\constraintlayout-2.1.4\AndroidManifest.xml:9:5-20
MERGED from [androidx.emoji2:emoji2:1.2.0] C:\Users\admin\.gradle\caches\transforms-3\7ff1b1d9c636b3fcd5669f68254f90d8\transformed\emoji2-1.2.0\AndroidManifest.xml:23:5-33:19
MERGED from [androidx.emoji2:emoji2:1.2.0] C:\Users\admin\.gradle\caches\transforms-3\7ff1b1d9c636b3fcd5669f68254f90d8\transformed\emoji2-1.2.0\AndroidManifest.xml:23:5-33:19
MERGED from [androidx.core:core:1.10.0-alpha01] C:\Users\admin\.gradle\caches\transforms-3\25c761b5d07a1174af34f5a9d24f085d\transformed\core-1.10.0-alpha01\AndroidManifest.xml:28:5-89
MERGED from [androidx.core:core:1.10.0-alpha01] C:\Users\admin\.gradle\caches\transforms-3\25c761b5d07a1174af34f5a9d24f085d\transformed\core-1.10.0-alpha01\AndroidManifest.xml:28:5-89
MERGED from [androidx.lifecycle:lifecycle-process:2.4.1] C:\Users\admin\.gradle\caches\transforms-3\d2ae72730d0d902b6b4e801bc94ab130\transformed\lifecycle-process-2.4.1\AndroidManifest.xml:25:5-35:19
MERGED from [androidx.lifecycle:lifecycle-process:2.4.1] C:\Users\admin\.gradle\caches\transforms-3\d2ae72730d0d902b6b4e801bc94ab130\transformed\lifecycle-process-2.4.1\AndroidManifest.xml:25:5-35:19
MERGED from [androidx.versionedparcelable:versionedparcelable:1.1.1] C:\Users\admin\.gradle\caches\transforms-3\60aef2cb00c30e9cb899eb9a1a6fa759\transformed\versionedparcelable-1.1.1\AndroidManifest.xml:24:5-25:19
MERGED from [androidx.versionedparcelable:versionedparcelable:1.1.1] C:\Users\admin\.gradle\caches\transforms-3\60aef2cb00c30e9cb899eb9a1a6fa759\transformed\versionedparcelable-1.1.1\AndroidManifest.xml:24:5-25:19
MERGED from [androidx.startup:startup-runtime:1.1.1] C:\Users\admin\.gradle\caches\transforms-3\a147c954b7c5f138add8df3c68b29d97\transformed\startup-runtime-1.1.1\AndroidManifest.xml:25:5-31:19
MERGED from [androidx.startup:startup-runtime:1.1.1] C:\Users\admin\.gradle\caches\transforms-3\a147c954b7c5f138add8df3c68b29d97\transformed\startup-runtime-1.1.1\AndroidManifest.xml:25:5-31:19
	android:appComponentFactory
		ADDED from [androidx.core:core:1.10.0-alpha01] C:\Users\admin\.gradle\caches\transforms-3\25c761b5d07a1174af34f5a9d24f085d\transformed\core-1.10.0-alpha01\AndroidManifest.xml:28:18-86
	android:supportsRtl
		ADDED from C:\Users\admin\work\DAM\ANDROID\Kotlin\10.Clases\app\src\main\AndroidManifest.xml:11:9-35
	android:label
		ADDED from C:\Users\admin\work\DAM\ANDROID\Kotlin\10.Clases\app\src\main\AndroidManifest.xml:10:9-41
	android:fullBackupContent
		ADDED from C:\Users\admin\work\DAM\ANDROID\Kotlin\10.Clases\app\src\main\AndroidManifest.xml:8:9-54
	tools:targetApi
		ADDED from C:\Users\admin\work\DAM\ANDROID\Kotlin\10.Clases\app\src\main\AndroidManifest.xml:13:9-29
	android:icon
		ADDED from C:\Users\admin\work\DAM\ANDROID\Kotlin\10.Clases\app\src\main\AndroidManifest.xml:9:9-43
	android:allowBackup
		ADDED from C:\Users\admin\work\DAM\ANDROID\Kotlin\10.Clases\app\src\main\AndroidManifest.xml:6:9-35
	android:theme
		ADDED from C:\Users\admin\work\DAM\ANDROID\Kotlin\10.Clases\app\src\main\AndroidManifest.xml:12:9-44
	android:dataExtractionRules
		ADDED from C:\Users\admin\work\DAM\ANDROID\Kotlin\10.Clases\app\src\main\AndroidManifest.xml:7:9-65
activity#com.example.clases.MainActivity
ADDED from C:\Users\admin\work\DAM\ANDROID\Kotlin\10.Clases\app\src\main\AndroidManifest.xml:14:9-22:20
	android:exported
		ADDED from C:\Users\admin\work\DAM\ANDROID\Kotlin\10.Clases\app\src\main\AndroidManifest.xml:16:13-36
	android:name
		ADDED from C:\Users\admin\work\DAM\ANDROID\Kotlin\10.Clases\app\src\main\AndroidManifest.xml:15:13-41
intent-filter#action:name:android.intent.action.MAIN+category:name:android.intent.category.LAUNCHER
ADDED from C:\Users\admin\work\DAM\ANDROID\Kotlin\10.Clases\app\src\main\AndroidManifest.xml:17:13-21:29
action#android.intent.action.MAIN
ADDED from C:\Users\admin\work\DAM\ANDROID\Kotlin\10.Clases\app\src\main\AndroidManifest.xml:18:17-69
	android:name
		ADDED from C:\Users\admin\work\DAM\ANDROID\Kotlin\10.Clases\app\src\main\AndroidManifest.xml:18:25-66
category#android.intent.category.LAUNCHER
ADDED from C:\Users\admin\work\DAM\ANDROID\Kotlin\10.Clases\app\src\main\AndroidManifest.xml:20:17-77
	android:name
		ADDED from C:\Users\admin\work\DAM\ANDROID\Kotlin\10.Clases\app\src\main\AndroidManifest.xml:20:27-74
uses-sdk
INJECTED from C:\Users\admin\work\DAM\ANDROID\Kotlin\10.Clases\app\src\main\AndroidManifest.xml reason: use-sdk injection requested
INJECTED from C:\Users\admin\work\DAM\ANDROID\Kotlin\10.Clases\app\src\main\AndroidManifest.xml
INJECTED from C:\Users\admin\work\DAM\ANDROID\Kotlin\10.Clases\app\src\main\AndroidManifest.xml
MERGED from [com.google.android.material:material:1.7.0] C:\Users\admin\.gradle\caches\transforms-3\54de430e29905f1b74ec8ce675293a4b\transformed\material-1.7.0\AndroidManifest.xml:20:5-22:41
MERGED from [com.google.android.material:material:1.7.0] C:\Users\admin\.gradle\caches\transforms-3\54de430e29905f1b74ec8ce675293a4b\transformed\material-1.7.0\AndroidManifest.xml:20:5-22:41
MERGED from [androidx.constraintlayout:constraintlayout:2.1.4] C:\Users\admin\.gradle\caches\transforms-3\a26dc482b536573e278955427a3ea6c8\transformed\constraintlayout-2.1.4\AndroidManifest.xml:5:5-7:41
MERGED from [androidx.constraintlayout:constraintlayout:2.1.4] C:\Users\admin\.gradle\caches\transforms-3\a26dc482b536573e278955427a3ea6c8\transformed\constraintlayout-2.1.4\AndroidManifest.xml:5:5-7:41
MERGED from [androidx.appcompat:appcompat-resources:1.6.0] C:\Users\admin\.gradle\caches\transforms-3\8226197697a8d2e8d421fa275be29f24\transformed\appcompat-resources-1.6.0\AndroidManifest.xml:20:5-44
MERGED from [androidx.appcompat:appcompat-resources:1.6.0] C:\Users\admin\.gradle\caches\transforms-3\8226197697a8d2e8d421fa275be29f24\transformed\appcompat-resources-1.6.0\AndroidManifest.xml:20:5-44
MERGED from [androidx.appcompat:appcompat:1.6.0] C:\Users\admin\.gradle\caches\transforms-3\1a74363f4d2fd99bd10bf980a8bbdc17\transformed\appcompat-1.6.0\AndroidManifest.xml:20:5-44
MERGED from [androidx.appcompat:appcompat:1.6.0] C:\Users\admin\.gradle\caches\transforms-3\1a74363f4d2fd99bd10bf980a8bbdc17\transformed\appcompat-1.6.0\AndroidManifest.xml:20:5-44
MERGED from [androidx.viewpager2:viewpager2:1.0.0] C:\Users\admin\.gradle\caches\transforms-3\b66e37cd018c06e8913391ed14bbe357\transformed\viewpager2-1.0.0\AndroidManifest.xml:20:5-22:41
MERGED from [androidx.viewpager2:viewpager2:1.0.0] C:\Users\admin\.gradle\caches\transforms-3\b66e37cd018c06e8913391ed14bbe357\transformed\viewpager2-1.0.0\AndroidManifest.xml:20:5-22:41
MERGED from [androidx.fragment:fragment:1.3.6] C:\Users\admin\.gradle\caches\transforms-3\e628b453cd8bee189f7929fa053ca6e2\transformed\fragment-1.3.6\AndroidManifest.xml:20:5-22:41
MERGED from [androidx.fragment:fragment:1.3.6] C:\Users\admin\.gradle\caches\transforms-3\e628b453cd8bee189f7929fa053ca6e2\transformed\fragment-1.3.6\AndroidManifest.xml:20:5-22:41
MERGED from [androidx.activity:activity:1.6.0] C:\Users\admin\.gradle\caches\transforms-3\b4d0ffd577e5f1174a428d1849fca608\transformed\activity-1.6.0\AndroidManifest.xml:20:5-44
MERGED from [androidx.activity:activity:1.6.0] C:\Users\admin\.gradle\caches\transforms-3\b4d0ffd577e5f1174a428d1849fca608\transformed\activity-1.6.0\AndroidManifest.xml:20:5-44
MERGED from [androidx.dynamicanimation:dynamicanimation:1.0.0] C:\Users\admin\.gradle\caches\transforms-3\b72abda2dafe11092efd2c7c2df17f0e\transformed\dynamicanimation-1.0.0\AndroidManifest.xml:20:5-44
MERGED from [androidx.dynamicanimation:dynamicanimation:1.0.0] C:\Users\admin\.gradle\caches\transforms-3\b72abda2dafe11092efd2c7c2df17f0e\transformed\dynamicanimation-1.0.0\AndroidManifest.xml:20:5-44
MERGED from [androidx.legacy:legacy-support-core-utils:1.0.0] C:\Users\admin\.gradle\caches\transforms-3\c2697a104d53b58384dcb2658625ee7e\transformed\legacy-support-core-utils-1.0.0\AndroidManifest.xml:20:5-44
MERGED from [androidx.legacy:legacy-support-core-utils:1.0.0] C:\Users\admin\.gradle\caches\transforms-3\c2697a104d53b58384dcb2658625ee7e\transformed\legacy-support-core-utils-1.0.0\AndroidManifest.xml:20:5-44
MERGED from [androidx.loader:loader:1.0.0] C:\Users\admin\.gradle\caches\transforms-3\597806e147b2b20e724620405b72a9f2\transformed\loader-1.0.0\AndroidManifest.xml:20:5-44
MERGED from [androidx.loader:loader:1.0.0] C:\Users\admin\.gradle\caches\transforms-3\597806e147b2b20e724620405b72a9f2\transformed\loader-1.0.0\AndroidManifest.xml:20:5-44
MERGED from [androidx.lifecycle:lifecycle-viewmodel:2.5.1] C:\Users\admin\.gradle\caches\transforms-3\b40e0202e8b44ebef854b3b3796ef4a5\transformed\lifecycle-viewmodel-2.5.1\AndroidManifest.xml:20:5-22:41
MERGED from [androidx.lifecycle:lifecycle-viewmodel:2.5.1] C:\Users\admin\.gradle\caches\transforms-3\b40e0202e8b44ebef854b3b3796ef4a5\transformed\lifecycle-viewmodel-2.5.1\AndroidManifest.xml:20:5-22:41
MERGED from [androidx.lifecycle:lifecycle-viewmodel-savedstate:2.5.1] C:\Users\admin\.gradle\caches\transforms-3\859df3079c03d9dcd785caeb22efa886\transformed\lifecycle-viewmodel-savedstate-2.5.1\AndroidManifest.xml:20:5-22:41
MERGED from [androidx.lifecycle:lifecycle-viewmodel-savedstate:2.5.1] C:\Users\admin\.gradle\caches\transforms-3\859df3079c03d9dcd785caeb22efa886\transformed\lifecycle-viewmodel-savedstate-2.5.1\AndroidManifest.xml:20:5-22:41
MERGED from [androidx.emoji2:emoji2-views-helper:1.2.0] C:\Users\admin\.gradle\caches\transforms-3\94857988354892de7618866143ec8717\transformed\emoji2-views-helper-1.2.0\AndroidManifest.xml:5:5-44
MERGED from [androidx.emoji2:emoji2-views-helper:1.2.0] C:\Users\admin\.gradle\caches\transforms-3\94857988354892de7618866143ec8717\transformed\emoji2-views-helper-1.2.0\AndroidManifest.xml:5:5-44
MERGED from [androidx.emoji2:emoji2:1.2.0] C:\Users\admin\.gradle\caches\transforms-3\7ff1b1d9c636b3fcd5669f68254f90d8\transformed\emoji2-1.2.0\AndroidManifest.xml:21:5-44
MERGED from [androidx.emoji2:emoji2:1.2.0] C:\Users\admin\.gradle\caches\transforms-3\7ff1b1d9c636b3fcd5669f68254f90d8\transformed\emoji2-1.2.0\AndroidManifest.xml:21:5-44
MERGED from [androidx.drawerlayout:drawerlayout:1.1.1] C:\Users\admin\.gradle\caches\transforms-3\374c8323f7aed8dcc8d00c8253274b3e\transformed\drawerlayout-1.1.1\AndroidManifest.xml:20:5-22:41
MERGED from [androidx.drawerlayout:drawerlayout:1.1.1] C:\Users\admin\.gradle\caches\transforms-3\374c8323f7aed8dcc8d00c8253274b3e\transformed\drawerlayout-1.1.1\AndroidManifest.xml:20:5-22:41
MERGED from [androidx.coordinatorlayout:coordinatorlayout:1.1.0] C:\Users\admin\.gradle\caches\transforms-3\76823a304916f730137ce0f083d0282b\transformed\coordinatorlayout-1.1.0\AndroidManifest.xml:20:5-22:41
MERGED from [androidx.coordinatorlayout:coordinatorlayout:1.1.0] C:\Users\admin\.gradle\caches\transforms-3\76823a304916f730137ce0f083d0282b\transformed\coordinatorlayout-1.1.0\AndroidManifest.xml:20:5-22:41
MERGED from [androidx.transition:transition:1.2.0] C:\Users\admin\.gradle\caches\transforms-3\6406354f75501461066cb94bdb0a80ae\transformed\transition-1.2.0\AndroidManifest.xml:20:5-22:41
MERGED from [androidx.transition:transition:1.2.0] C:\Users\admin\.gradle\caches\transforms-3\6406354f75501461066cb94bdb0a80ae\transformed\transition-1.2.0\AndroidManifest.xml:20:5-22:41
MERGED from [androidx.vectordrawable:vectordrawable-animated:1.1.0] C:\Users\admin\.gradle\caches\transforms-3\490c9e5fc3b64662bdfd87cc845ef097\transformed\vectordrawable-animated-1.1.0\AndroidManifest.xml:20:5-22:41
MERGED from [androidx.vectordrawable:vectordrawable-animated:1.1.0] C:\Users\admin\.gradle\caches\transforms-3\490c9e5fc3b64662bdfd87cc845ef097\transformed\vectordrawable-animated-1.1.0\AndroidManifest.xml:20:5-22:41
MERGED from [androidx.vectordrawable:vectordrawable:1.1.0] C:\Users\admin\.gradle\caches\transforms-3\87d8b5457c07ce6b83872c79f6a2853b\transformed\vectordrawable-1.1.0\AndroidManifest.xml:20:5-22:41
MERGED from [androidx.vectordrawable:vectordrawable:1.1.0] C:\Users\admin\.gradle\caches\transforms-3\87d8b5457c07ce6b83872c79f6a2853b\transformed\vectordrawable-1.1.0\AndroidManifest.xml:20:5-22:41
MERGED from [androidx.viewpager:viewpager:1.0.0] C:\Users\admin\.gradle\caches\transforms-3\5e3069c042f5d7456ac6ecbb90a43efa\transformed\viewpager-1.0.0\AndroidManifest.xml:20:5-44
MERGED from [androidx.viewpager:viewpager:1.0.0] C:\Users\admin\.gradle\caches\transforms-3\5e3069c042f5d7456ac6ecbb90a43efa\transformed\viewpager-1.0.0\AndroidManifest.xml:20:5-44
MERGED from [androidx.recyclerview:recyclerview:1.1.0] C:\Users\admin\.gradle\caches\transforms-3\936b4b39b86c4a3c90a5bc5674ee6904\transformed\recyclerview-1.1.0\AndroidManifest.xml:20:5-22:41
MERGED from [androidx.recyclerview:recyclerview:1.1.0] C:\Users\admin\.gradle\caches\transforms-3\936b4b39b86c4a3c90a5bc5674ee6904\transformed\recyclerview-1.1.0\AndroidManifest.xml:20:5-22:41
MERGED from [androidx.customview:customview:1.1.0] C:\Users\admin\.gradle\caches\transforms-3\7173a79ce234f9ef7d2607cdf2c985af\transformed\customview-1.1.0\AndroidManifest.xml:20:5-22:41
MERGED from [androidx.customview:customview:1.1.0] C:\Users\admin\.gradle\caches\transforms-3\7173a79ce234f9ef7d2607cdf2c985af\transformed\customview-1.1.0\AndroidManifest.xml:20:5-22:41
MERGED from [androidx.core:core:1.10.0-alpha01] C:\Users\admin\.gradle\caches\transforms-3\25c761b5d07a1174af34f5a9d24f085d\transformed\core-1.10.0-alpha01\AndroidManifest.xml:20:5-44
MERGED from [androidx.core:core:1.10.0-alpha01] C:\Users\admin\.gradle\caches\transforms-3\25c761b5d07a1174af34f5a9d24f085d\transformed\core-1.10.0-alpha01\AndroidManifest.xml:20:5-44
MERGED from [androidx.core:core-ktx:1.10.0-alpha01] C:\Users\admin\.gradle\caches\transforms-3\0a70b12574804b5d8278d4a7b5dcaa20\transformed\core-ktx-1.10.0-alpha01\AndroidManifest.xml:5:5-44
MERGED from [androidx.core:core-ktx:1.10.0-alpha01] C:\Users\admin\.gradle\caches\transforms-3\0a70b12574804b5d8278d4a7b5dcaa20\transformed\core-ktx-1.10.0-alpha01\AndroidManifest.xml:5:5-44
MERGED from [androidx.savedstate:savedstate:1.2.0] C:\Users\admin\.gradle\caches\transforms-3\0523bee9d1ff70f7d9b0e6aa34e80d06\transformed\savedstate-1.2.0\AndroidManifest.xml:20:5-22:41
MERGED from [androidx.savedstate:savedstate:1.2.0] C:\Users\admin\.gradle\caches\transforms-3\0523bee9d1ff70f7d9b0e6aa34e80d06\transformed\savedstate-1.2.0\AndroidManifest.xml:20:5-22:41
MERGED from [androidx.annotation:annotation-experimental:1.3.0] C:\Users\admin\.gradle\caches\transforms-3\05fb4f56f386ab35064aac5e4092e813\transformed\annotation-experimental-1.3.0\AndroidManifest.xml:20:5-44
MERGED from [androidx.annotation:annotation-experimental:1.3.0] C:\Users\admin\.gradle\caches\transforms-3\05fb4f56f386ab35064aac5e4092e813\transformed\annotation-experimental-1.3.0\AndroidManifest.xml:20:5-44
MERGED from [androidx.cursoradapter:cursoradapter:1.0.0] C:\Users\admin\.gradle\caches\transforms-3\0f35c852ffdcc6868f4ae90d3222a8ab\transformed\cursoradapter-1.0.0\AndroidManifest.xml:20:5-44
MERGED from [androidx.cursoradapter:cursoradapter:1.0.0] C:\Users\admin\.gradle\caches\transforms-3\0f35c852ffdcc6868f4ae90d3222a8ab\transformed\cursoradapter-1.0.0\AndroidManifest.xml:20:5-44
MERGED from [androidx.lifecycle:lifecycle-process:2.4.1] C:\Users\admin\.gradle\caches\transforms-3\d2ae72730d0d902b6b4e801bc94ab130\transformed\lifecycle-process-2.4.1\AndroidManifest.xml:21:5-23:41
MERGED from [androidx.lifecycle:lifecycle-process:2.4.1] C:\Users\admin\.gradle\caches\transforms-3\d2ae72730d0d902b6b4e801bc94ab130\transformed\lifecycle-process-2.4.1\AndroidManifest.xml:21:5-23:41
MERGED from [androidx.lifecycle:lifecycle-runtime:2.5.1] C:\Users\admin\.gradle\caches\transforms-3\168c47ea75a176f4baadb15e1c3f0a88\transformed\lifecycle-runtime-2.5.1\AndroidManifest.xml:20:5-22:41
MERGED from [androidx.lifecycle:lifecycle-runtime:2.5.1] C:\Users\admin\.gradle\caches\transforms-3\168c47ea75a176f4baadb15e1c3f0a88\transformed\lifecycle-runtime-2.5.1\AndroidManifest.xml:20:5-22:41
MERGED from [androidx.cardview:cardview:1.0.0] C:\Users\admin\.gradle\caches\transforms-3\f791ba8e78ad543d75e7fb7adefc2fc9\transformed\cardview-1.0.0\AndroidManifest.xml:20:5-44
MERGED from [androidx.cardview:cardview:1.0.0] C:\Users\admin\.gradle\caches\transforms-3\f791ba8e78ad543d75e7fb7adefc2fc9\transformed\cardview-1.0.0\AndroidManifest.xml:20:5-44
MERGED from [androidx.interpolator:interpolator:1.0.0] C:\Users\admin\.gradle\caches\transforms-3\1ec56feae499855d711c9beeccfecdab\transformed\interpolator-1.0.0\AndroidManifest.xml:20:5-44
MERGED from [androidx.interpolator:interpolator:1.0.0] C:\Users\admin\.gradle\caches\transforms-3\1ec56feae499855d711c9beeccfecdab\transformed\interpolator-1.0.0\AndroidManifest.xml:20:5-44
MERGED from [androidx.versionedparcelable:versionedparcelable:1.1.1] C:\Users\admin\.gradle\caches\transforms-3\60aef2cb00c30e9cb899eb9a1a6fa759\transformed\versionedparcelable-1.1.1\AndroidManifest.xml:20:5-22:41
MERGED from [androidx.versionedparcelable:versionedparcelable:1.1.1] C:\Users\admin\.gradle\caches\transforms-3\60aef2cb00c30e9cb899eb9a1a6fa759\transformed\versionedparcelable-1.1.1\AndroidManifest.xml:20:5-22:41
MERGED from [androidx.startup:startup-runtime:1.1.1] C:\Users\admin\.gradle\caches\transforms-3\a147c954b7c5f138add8df3c68b29d97\transformed\startup-runtime-1.1.1\AndroidManifest.xml:21:5-23:41
MERGED from [androidx.startup:startup-runtime:1.1.1] C:\Users\admin\.gradle\caches\transforms-3\a147c954b7c5f138add8df3c68b29d97\transformed\startup-runtime-1.1.1\AndroidManifest.xml:21:5-23:41
MERGED from [androidx.tracing:tracing:1.0.0] C:\Users\admin\.gradle\caches\transforms-3\d0c4823b265309f28d1e1f1fc8aa7a9c\transformed\tracing-1.0.0\AndroidManifest.xml:20:5-22:41
MERGED from [androidx.tracing:tracing:1.0.0] C:\Users\admin\.gradle\caches\transforms-3\d0c4823b265309f28d1e1f1fc8aa7a9c\transformed\tracing-1.0.0\AndroidManifest.xml:20:5-22:41
MERGED from [androidx.lifecycle:lifecycle-livedata:2.0.0] C:\Users\admin\.gradle\caches\transforms-3\b0713a0b7e231220d69252efb434a94e\transformed\lifecycle-livedata-2.0.0\AndroidManifest.xml:20:5-44
MERGED from [androidx.lifecycle:lifecycle-livedata:2.0.0] C:\Users\admin\.gradle\caches\transforms-3\b0713a0b7e231220d69252efb434a94e\transformed\lifecycle-livedata-2.0.0\AndroidManifest.xml:20:5-44
MERGED from [androidx.lifecycle:lifecycle-livedata-core:2.5.1] C:\Users\admin\.gradle\caches\transforms-3\cfa4c37f2c3cf03c03ecccd9ec4d6b2c\transformed\lifecycle-livedata-core-2.5.1\AndroidManifest.xml:20:5-22:41
MERGED from [androidx.lifecycle:lifecycle-livedata-core:2.5.1] C:\Users\admin\.gradle\caches\transforms-3\cfa4c37f2c3cf03c03ecccd9ec4d6b2c\transformed\lifecycle-livedata-core-2.5.1\AndroidManifest.xml:20:5-22:41
MERGED from [androidx.arch.core:core-runtime:2.1.0] C:\Users\admin\.gradle\caches\transforms-3\e97b27503eec22039d828cf61ee5d756\transformed\core-runtime-2.1.0\AndroidManifest.xml:20:5-22:41
MERGED from [androidx.arch.core:core-runtime:2.1.0] C:\Users\admin\.gradle\caches\transforms-3\e97b27503eec22039d828cf61ee5d756\transformed\core-runtime-2.1.0\AndroidManifest.xml:20:5-22:41
MERGED from [androidx.documentfile:documentfile:1.0.0] C:\Users\admin\.gradle\caches\transforms-3\122b0d0f50f32fc5d5b8db91bd28489e\transformed\documentfile-1.0.0\AndroidManifest.xml:20:5-44
MERGED from [androidx.documentfile:documentfile:1.0.0] C:\Users\admin\.gradle\caches\transforms-3\122b0d0f50f32fc5d5b8db91bd28489e\transformed\documentfile-1.0.0\AndroidManifest.xml:20:5-44
MERGED from [androidx.localbroadcastmanager:localbroadcastmanager:1.0.0] C:\Users\admin\.gradle\caches\transforms-3\a8b508abd1610990b0e8a9f0458a88c7\transformed\localbroadcastmanager-1.0.0\AndroidManifest.xml:20:5-44
MERGED from [androidx.localbroadcastmanager:localbroadcastmanager:1.0.0] C:\Users\admin\.gradle\caches\transforms-3\a8b508abd1610990b0e8a9f0458a88c7\transformed\localbroadcastmanager-1.0.0\AndroidManifest.xml:20:5-44
MERGED from [androidx.print:print:1.0.0] C:\Users\admin\.gradle\caches\transforms-3\7f618bd0f59978824789fa038c270023\transformed\print-1.0.0\AndroidManifest.xml:20:5-44
MERGED from [androidx.print:print:1.0.0] C:\Users\admin\.gradle\caches\transforms-3\7f618bd0f59978824789fa038c270023\transformed\print-1.0.0\AndroidManifest.xml:20:5-44
INJECTED from C:\Users\admin\work\DAM\ANDROID\Kotlin\10.Clases\app\src\main\AndroidManifest.xml
INJECTED from C:\Users\admin\work\DAM\ANDROID\Kotlin\10.Clases\app\src\main\AndroidManifest.xml
	android:targetSdkVersion
		INJECTED from C:\Users\admin\work\DAM\ANDROID\Kotlin\10.Clases\app\src\main\AndroidManifest.xml
		ADDED from C:\Users\admin\work\DAM\ANDROID\Kotlin\10.Clases\app\src\main\AndroidManifest.xml
		INJECTED from C:\Users\admin\work\DAM\ANDROID\Kotlin\10.Clases\app\src\main\AndroidManifest.xml
	android:minSdkVersion
		INJECTED from C:\Users\admin\work\DAM\ANDROID\Kotlin\10.Clases\app\src\main\AndroidManifest.xml
		ADDED from C:\Users\admin\work\DAM\ANDROID\Kotlin\10.Clases\app\src\main\AndroidManifest.xml
		INJECTED from C:\Users\admin\work\DAM\ANDROID\Kotlin\10.Clases\app\src\main\AndroidManifest.xml
provider#androidx.startup.InitializationProvider
ADDED from [androidx.emoji2:emoji2:1.2.0] C:\Users\admin\.gradle\caches\transforms-3\7ff1b1d9c636b3fcd5669f68254f90d8\transformed\emoji2-1.2.0\AndroidManifest.xml:24:9-32:20
MERGED from [androidx.lifecycle:lifecycle-process:2.4.1] C:\Users\admin\.gradle\caches\transforms-3\d2ae72730d0d902b6b4e801bc94ab130\transformed\lifecycle-process-2.4.1\AndroidManifest.xml:26:9-34:20
MERGED from [androidx.lifecycle:lifecycle-process:2.4.1] C:\Users\admin\.gradle\caches\transforms-3\d2ae72730d0d902b6b4e801bc94ab130\transformed\lifecycle-process-2.4.1\AndroidManifest.xml:26:9-34:20
MERGED from [androidx.startup:startup-runtime:1.1.1] C:\Users\admin\.gradle\caches\transforms-3\a147c954b7c5f138add8df3c68b29d97\transformed\startup-runtime-1.1.1\AndroidManifest.xml:26:9-30:34
MERGED from [androidx.startup:startup-runtime:1.1.1] C:\Users\admin\.gradle\caches\transforms-3\a147c954b7c5f138add8df3c68b29d97\transformed\startup-runtime-1.1.1\AndroidManifest.xml:26:9-30:34
	tools:node
		ADDED from [androidx.emoji2:emoji2:1.2.0] C:\Users\admin\.gradle\caches\transforms-3\7ff1b1d9c636b3fcd5669f68254f90d8\transformed\emoji2-1.2.0\AndroidManifest.xml:28:13-31
	android:authorities
		ADDED from [androidx.emoji2:emoji2:1.2.0] C:\Users\admin\.gradle\caches\transforms-3\7ff1b1d9c636b3fcd5669f68254f90d8\transformed\emoji2-1.2.0\AndroidManifest.xml:26:13-68
	android:exported
		ADDED from [androidx.emoji2:emoji2:1.2.0] C:\Users\admin\.gradle\caches\transforms-3\7ff1b1d9c636b3fcd5669f68254f90d8\transformed\emoji2-1.2.0\AndroidManifest.xml:27:13-37
	android:name
		ADDED from [androidx.emoji2:emoji2:1.2.0] C:\Users\admin\.gradle\caches\transforms-3\7ff1b1d9c636b3fcd5669f68254f90d8\transformed\emoji2-1.2.0\AndroidManifest.xml:25:13-67
meta-data#androidx.emoji2.text.EmojiCompatInitializer
ADDED from [androidx.emoji2:emoji2:1.2.0] C:\Users\admin\.gradle\caches\transforms-3\7ff1b1d9c636b3fcd5669f68254f90d8\transformed\emoji2-1.2.0\AndroidManifest.xml:29:13-31:52
	android:value
		ADDED from [androidx.emoji2:emoji2:1.2.0] C:\Users\admin\.gradle\caches\transforms-3\7ff1b1d9c636b3fcd5669f68254f90d8\transformed\emoji2-1.2.0\AndroidManifest.xml:31:17-49
	android:name
		ADDED from [androidx.emoji2:emoji2:1.2.0] C:\Users\admin\.gradle\caches\transforms-3\7ff1b1d9c636b3fcd5669f68254f90d8\transformed\emoji2-1.2.0\AndroidManifest.xml:30:17-75
permission#${applicationId}.DYNAMIC_RECEIVER_NOT_EXPORTED_PERMISSION
ADDED from [androidx.core:core:1.10.0-alpha01] C:\Users\admin\.gradle\caches\transforms-3\25c761b5d07a1174af34f5a9d24f085d\transformed\core-1.10.0-alpha01\AndroidManifest.xml:22:5-24:47
	android:protectionLevel
		ADDED from [androidx.core:core:1.10.0-alpha01] C:\Users\admin\.gradle\caches\transforms-3\25c761b5d07a1174af34f5a9d24f085d\transformed\core-1.10.0-alpha01\AndroidManifest.xml:24:9-44
	android:name
		ADDED from [androidx.core:core:1.10.0-alpha01] C:\Users\admin\.gradle\caches\transforms-3\25c761b5d07a1174af34f5a9d24f085d\transformed\core-1.10.0-alpha01\AndroidManifest.xml:23:9-81
permission#com.example.clases.DYNAMIC_RECEIVER_NOT_EXPORTED_PERMISSION
ADDED from [androidx.core:core:1.10.0-alpha01] C:\Users\admin\.gradle\caches\transforms-3\25c761b5d07a1174af34f5a9d24f085d\transformed\core-1.10.0-alpha01\AndroidManifest.xml:22:5-24:47
	android:protectionLevel
		ADDED from [androidx.core:core:1.10.0-alpha01] C:\Users\admin\.gradle\caches\transforms-3\25c761b5d07a1174af34f5a9d24f085d\transformed\core-1.10.0-alpha01\AndroidManifest.xml:24:9-44
	android:name
		ADDED from [androidx.core:core:1.10.0-alpha01] C:\Users\admin\.gradle\caches\transforms-3\25c761b5d07a1174af34f5a9d24f085d\transformed\core-1.10.0-alpha01\AndroidManifest.xml:23:9-81
uses-permission#${applicationId}.DYNAMIC_RECEIVER_NOT_EXPORTED_PERMISSION
ADDED from [androidx.core:core:1.10.0-alpha01] C:\Users\admin\.gradle\caches\transforms-3\25c761b5d07a1174af34f5a9d24f085d\transformed\core-1.10.0-alpha01\AndroidManifest.xml:26:5-97
	android:name
		ADDED from [androidx.core:core:1.10.0-alpha01] C:\Users\admin\.gradle\caches\transforms-3\25c761b5d07a1174af34f5a9d24f085d\transformed\core-1.10.0-alpha01\AndroidManifest.xml:26:22-94
uses-permission#com.example.clases.DYNAMIC_RECEIVER_NOT_EXPORTED_PERMISSION
ADDED from [androidx.core:core:1.10.0-alpha01] C:\Users\admin\.gradle\caches\transforms-3\25c761b5d07a1174af34f5a9d24f085d\transformed\core-1.10.0-alpha01\AndroidManifest.xml:26:5-97
	android:name
		ADDED from [androidx.core:core:1.10.0-alpha01] C:\Users\admin\.gradle\caches\transforms-3\25c761b5d07a1174af34f5a9d24f085d\transformed\core-1.10.0-alpha01\AndroidManifest.xml:26:22-94
meta-data#androidx.lifecycle.ProcessLifecycleInitializer
ADDED from [androidx.lifecycle:lifecycle-process:2.4.1] C:\Users\admin\.gradle\caches\transforms-3\d2ae72730d0d902b6b4e801bc94ab130\transformed\lifecycle-process-2.4.1\AndroidManifest.xml:31:13-33:52
	android:value
		ADDED from [androidx.lifecycle:lifecycle-process:2.4.1] C:\Users\admin\.gradle\caches\transforms-3\d2ae72730d0d902b6b4e801bc94ab130\transformed\lifecycle-process-2.4.1\AndroidManifest.xml:33:17-49
	android:name
		ADDED from [androidx.lifecycle:lifecycle-process:2.4.1] C:\Users\admin\.gradle\caches\transforms-3\d2ae72730d0d902b6b4e801bc94ab130\transformed\lifecycle-process-2.4.1\AndroidManifest.xml:32:17-78
