<?xml version="1.0" encoding="UTF-8"?>
<session version="1.0">
<refactoring comment="Rename type &apos;funciones.Users&apos; to &apos;Fnc_users&apos;&#x0D;&#x0A;- Original project: &apos;proyecto_final&apos;&#x0D;&#x0A;- Original element: &apos;funciones.Users&apos;&#x0D;&#x0A;- Renamed element: &apos;funciones.Fnc_users&apos;&#x0D;&#x0A;- Update references to refactored element&#x0D;&#x0A;- Update textual occurrences in comments and strings" description="Rename type &apos;Users&apos;" flags="589830" id="org.eclipse.jdt.ui.rename.type" input="/src&lt;funciones{Users.java[Users" matchStrategy="1" name="Fnc_users" qualified="false" references="true" similarDeclarations="false" stamp="1667386140371" textual="false" version="1.0"/>
</session>